<svg width="24" height="25" viewBox="0 0 24 25" fill="none" xmlns="http://www.w3.org/2000/svg">
<path d="M22 4.02143L19.9786 2L12 9.97857L4.02143 2L2 4.02143L9.97857 12L2 19.9786L4.02143 22L12 14.0214L19.9786 22L22 19.9786L14.0214 12L22 4.02143Z" fill="black"/>
</svg>
