<svg width="168" height="100" viewBox="0 0 168 100" fill="none" xmlns="http://www.w3.org/2000/svg">
<circle opacity="0.3" cx="82" cy="55" r="41" fill="#EFE2B4"/>
<circle opacity="0.5" cx="82" cy="55" r="35" fill="#EFE2B4"/>
<circle cx="82" cy="55" r="29" fill="url(#paint0_linear)"/>
<g clip-path="url(#clip0)">
<path d="M82 84C65.9837 84 53 71.0163 53 55C53 38.9837 65.9837 26 82 26C98.0163 26 111 38.9837 111 55C111 71.0163 98.0163 84 82 84Z" fill="#EAD181"/>
<path d="M73.0168 64.165C73.4862 64.165 73.958 64.019 74.3623 63.7158L83.3475 56.9768C83.9136 56.5545 84.2461 55.8873 84.2461 55.1797V41.7018C84.2461 40.4618 83.2397 39.4554 81.9997 39.4554C80.7598 39.4554 79.7534 40.4618 79.7534 41.7018V54.0566L71.6666 60.1217C70.6736 60.8653 70.4715 62.2737 71.2173 63.2643C71.6578 63.8572 72.3316 64.165 73.0168 64.165Z" fill="white"/>
</g>
<circle cx="106.5" cy="70.5" r="13.5" fill="#E2BB4B"/>
<circle cx="106.5" cy="70.5" r="11.5" fill="#EAD181"/>
<path d="M101 70.2162L104.86 74L112 67" stroke="white" stroke-width="3"/>
<path opacity="0.5" d="M21.4456 9.33181L22.5849 12.4627C22.6337 12.5968 22.7302 12.7031 22.8522 12.7567L25.6984 14.0099C26.1005 14.187 26.1005 14.8131 25.6984 14.9902L22.8522 16.2434C22.7303 16.297 22.6337 16.4033 22.5849 16.5374L21.4456 19.6683C21.2846 20.1106 20.7154 20.1106 20.5544 19.6683L19.4151 16.5374C19.3663 16.4033 19.2698 16.297 19.1478 16.2434L16.3016 14.9902C15.8995 14.8131 15.8995 14.187 16.3016 14.0099L19.1478 12.7567C19.2697 12.7031 19.3663 12.5968 19.4151 12.4627L20.5544 9.33181C20.7154 8.8894 21.2846 8.8894 21.4456 9.33181Z" fill="#EAD181"/>
<path d="M46.5 20C47.3284 20 48 19.3284 48 18.5C48 17.6716 47.3284 17 46.5 17C45.6716 17 45 17.6716 45 18.5C45 19.3284 45.6716 20 46.5 20Z" fill="#EAD181"/>
<path d="M115.5 6C116.328 6 117 5.32843 117 4.5C117 3.67157 116.328 3 115.5 3C114.672 3 114 3.67157 114 4.5C114 5.32843 114.672 6 115.5 6Z" fill="#EAD181"/>
<path d="M29.8118 40.2111L30.6093 42.2035C30.6435 42.2889 30.7111 42.3564 30.7964 42.3906L32.7889 43.1881C33.0704 43.3008 33.0704 43.6993 32.7889 43.8119L30.7964 44.6094C30.7111 44.6436 30.6435 44.7111 30.6093 44.7965L29.8118 46.7889C29.6991 47.0704 29.3007 47.0704 29.188 46.7889L28.3905 44.7965C28.3563 44.7111 28.2888 44.6436 28.2035 44.6094L26.2111 43.8119C25.9296 43.6992 25.9296 43.3008 26.2111 43.1881L28.2035 42.3906C28.2888 42.3564 28.3563 42.2889 28.3905 42.2035L29.188 40.2111C29.3008 39.9296 29.6992 39.9296 29.8118 40.2111Z" fill="#EAD181"/>
<path d="M65.7227 0.150789L66.2924 1.57396C66.3168 1.63489 66.365 1.68317 66.426 1.70755L67.8492 2.27721C68.0503 2.35772 68.0503 2.64236 67.8492 2.72279L66.426 3.29245C66.365 3.31683 66.3168 3.36511 66.2924 3.42604L65.7227 4.84921C65.6422 5.05026 65.3576 5.05026 65.2772 4.84921L64.7075 3.42604C64.6831 3.36511 64.6349 3.31683 64.5739 3.29245L63.1508 2.72279C62.9497 2.64228 62.9497 2.35772 63.1508 2.27721L64.5739 1.70755C64.6349 1.68317 64.6831 1.63489 64.7075 1.57396L65.2772 0.150789C65.3577 -0.050263 65.6423 -0.050263 65.7227 0.150789Z" fill="#EAD181"/>
<path opacity="0.5" d="M134 40C134 41.1045 133.105 42 132 42C130.895 42 130 41.1045 130 40C130 38.8955 130.895 38 132 38C133.105 38 134 38.8955 134 40Z" fill="#EAD181"/>
<path opacity="0.5" d="M97 12C97 13.1045 96.1045 14 95 14C93.8955 14 93 13.1045 93 12C93 10.8955 93.8955 10 95 10C96.1045 10 97 10.8955 97 12Z" fill="#EAD181"/>
<path opacity="0.8" d="M142.356 14.2413L143.268 16.5183C143.307 16.6158 143.384 16.6931 143.482 16.7321L145.759 17.6435C146.08 17.7724 146.08 18.2276 145.759 18.3565L143.482 19.2679C143.384 19.3069 143.307 19.3842 143.268 19.4817L142.356 21.7587C142.228 22.0804 141.772 22.0804 141.643 21.7587L140.732 19.4817C140.693 19.3842 140.616 19.3069 140.518 19.2679L138.241 18.3565C137.92 18.2276 137.92 17.7724 138.241 17.6435L140.518 16.7321C140.616 16.6931 140.693 16.6158 140.732 16.5183L141.643 14.2413C141.772 13.9196 142.228 13.9196 142.356 14.2413Z" fill="#EAD181"/>
<defs>
<linearGradient id="paint0_linear" x1="82" y1="26" x2="82" y2="84" gradientUnits="userSpaceOnUse">
<stop stop-color="#A4D3AE"/>
<stop offset="1" stop-color="#A5CDC8"/>
</linearGradient>
<clipPath id="clip0">
<rect width="58" height="58" fill="white" transform="matrix(-1 0 0 1 111 26)"/>
</clipPath>
</defs>
</svg>
