<svg width="24" height="24" viewBox="0 0 24 24" fill="none" xmlns="http://www.w3.org/2000/svg">
<g clip-path="url(#clip0)">
<path d="M19.875 22H4.125C3.50368 22 3 21.4941 3 20.8701V9.97484C3.01743 9.69796 3.13459 9.43691 3.32962 9.24043L11.2046 1.33137C11.4156 1.11921 11.702 1 12.0006 1C12.2991 1 12.5855 1.11921 12.7965 1.33137L20.6715 9.24043C20.8827 9.45203 21.001 9.73963 21 10.0392V20.8701C21 21.4941 20.4963 22 19.875 22ZM12 3.72782L5.25 10.507V19.7403H18.75V10.507L12 3.72782ZM12 17.4794C11.766 17.2704 11.5016 17.0523 11.2215 16.8218L11.1686 16.7789C9.867 15.7123 8.24362 14.3847 8.24362 12.734C8.2438 12.1871 8.46329 11.6633 8.85256 11.2808C9.24183 10.8984 9.76807 10.6895 10.3125 10.7013C10.9562 10.6996 11.5701 10.9738 12 11.455C12.43 10.9739 13.0438 10.6997 13.6875 10.7013C14.2313 10.6907 14.7566 10.9003 15.1449 11.2829C15.5332 11.6654 15.752 12.1888 15.7519 12.7351C15.7519 14.3915 14.1184 15.7281 12.8066 16.8026L12.7425 16.8557C12.4759 17.0749 12.2239 17.2817 11.9989 17.4817L12 17.4794Z" fill="#757575"/>
</g>
<defs>
<clipPath id="clip0">
<rect width="24" height="24" fill="white"/>
</clipPath>
</defs>
</svg>
