<svg width="24" height="24" viewBox="0 0 24 24" fill="none" xmlns="http://www.w3.org/2000/svg">
<path d="M17.5082 21H6.4918C5.18033 21 4 19.964 4 18.5396V11.6763C4 10.2518 5.18033 9.21582 6.4918 9.21582H17.5082C18.9508 9.21582 20 10.3813 20 11.6763V14.7842C20 15.1727 19.7377 15.4316 19.3443 15.4316C18.9508 15.4316 18.6885 15.1727 18.6885 14.7842V11.6763C18.6885 11.0288 18.1639 10.5108 17.5082 10.5108H6.4918C5.83607 10.3813 5.31148 10.8993 5.31148 11.6763V18.5396C5.31148 19.187 5.83607 19.705 6.4918 19.705H17.5082C18.1639 19.705 18.6885 19.187 18.6885 18.5396V17.6331C18.6885 17.2446 18.9508 16.9856 19.3443 16.9856C19.7377 16.9856 20 17.2446 20 17.6331V18.5396C20 19.964 18.8197 21 17.5082 21Z" fill="#A2A8AC"/>
<path d="M15.6721 10.3813H8.32786C7.93441 10.3813 7.67212 10.1223 7.67212 9.73381V7.27338C7.67212 4.94245 9.63933 3 12 3C14.3606 3 16.3279 4.94245 16.3279 7.27338V9.73381C16.3279 10.1223 16.0656 10.3813 15.6721 10.3813ZM8.98359 9.08633H15.0164V7.27338C15.0164 5.58993 13.7049 4.29496 12 4.29496C10.2951 4.29496 8.98359 5.58993 8.98359 7.27338V9.08633Z" fill="#A2A8AC"/>
<path d="M8.06563 16.338C8.78993 16.338 9.3771 15.7582 9.3771 15.043C9.3771 14.3278 8.78993 13.748 8.06563 13.748C7.34132 13.748 6.75415 14.3278 6.75415 15.043C6.75415 15.7582 7.34132 16.338 8.06563 16.338Z" fill="#A2A8AC"/>
<path d="M12 16.338C12.7243 16.338 13.3114 15.7582 13.3114 15.043C13.3114 14.3278 12.7243 13.748 12 13.748C11.2756 13.748 10.6885 14.3278 10.6885 15.043C10.6885 15.7582 11.2756 16.338 12 16.338Z" fill="#A2A8AC"/>
<path d="M15.9345 16.338C16.6588 16.338 17.246 15.7582 17.246 15.043C17.246 14.3278 16.6588 13.748 15.9345 13.748C15.2102 13.748 14.623 14.3278 14.623 15.043C14.623 15.7582 15.2102 16.338 15.9345 16.338Z" fill="#A2A8AC"/>
</svg>
