<svg width="40" height="40" viewBox="0 0 40 40" fill="none" xmlns="http://www.w3.org/2000/svg">
<path d="M20.1946 38.9641L21.9096 23.3941C21.9615 22.9204 22.3617 22.5616 22.8382 22.5616H29.0749L28.0985 13.5724C28.0162 12.822 27.3824 12.2539 26.6275 12.2539H5.35934C4.60449 12.2539 3.97059 12.8221 3.8884 13.5724L1.17207 38.3591C1.07605 39.2349 1.76191 40.0001 2.64301 40.0001H21.1232C20.567 40.0001 20.1339 39.517 20.1946 38.9641Z" fill="#6778D0"/>
<path d="M6.83543 38.3591L9.55176 13.5725C9.63402 12.8221 10.2678 12.254 11.0227 12.254H5.35934C4.60449 12.254 3.97066 12.8222 3.8884 13.5725L1.17207 38.3591C1.07605 39.2349 1.76191 40.0001 2.64301 40.0001H8.30637C7.42535 40.0001 6.73941 39.2349 6.83543 38.3591Z" fill="#1035BB"/>
<path d="M23.6665 16.0765C23.338 16.0765 23.0718 15.8102 23.0718 15.4818V8.2682C23.0718 4.36484 19.8962 1.1893 15.9929 1.1893C12.0895 1.1893 8.91398 4.36484 8.91398 8.2682V15.4818C8.91398 15.8102 8.64773 16.0765 8.3193 16.0765C7.99086 16.0765 7.72461 15.8102 7.72461 15.4818V8.2682C7.72469 3.70906 11.4338 0 15.9929 0C20.552 0 24.2611 3.70906 24.2611 8.2682V15.4818C24.2612 15.8103 23.9949 16.0765 23.6665 16.0765Z" fill="#6778D0"/>
<path d="M8.31984 18.839C7.25289 18.839 6.38477 17.9709 6.38477 16.904C6.38477 15.837 7.25281 14.969 8.31984 14.969C9.38687 14.969 10.2548 15.837 10.2548 16.904C10.2548 17.9709 9.3868 18.839 8.31984 18.839ZM8.31984 16.1583C7.90867 16.1583 7.57414 16.4928 7.57414 16.904C7.57414 17.3152 7.90867 17.6497 8.31984 17.6497C8.73101 17.6497 9.06555 17.3152 9.06555 16.904C9.06555 16.4928 8.73101 16.1583 8.31984 16.1583Z" fill="#FAFAFA"/>
<path d="M23.6674 18.839C22.6005 18.839 21.7324 17.9709 21.7324 16.904C21.7324 15.837 22.6005 14.969 23.6674 14.969C24.7344 14.969 25.6024 15.837 25.6024 16.904C25.6024 17.9709 24.7344 18.839 23.6674 18.839ZM23.6674 16.1583C23.2563 16.1583 22.9217 16.4928 22.9217 16.904C22.9217 17.3152 23.2563 17.6497 23.6674 17.6497C24.0786 17.6497 24.4131 17.3152 24.4131 16.904C24.4131 16.4928 24.0786 16.1583 23.6674 16.1583Z" fill="#FAFAFA"/>
<path d="M38.8302 38.964L37.1152 23.3147C37.0632 22.841 36.6631 22.4822 36.1865 22.4822H22.7587C22.2822 22.4822 21.8819 22.841 21.83 23.3147L20.115 38.964C20.0544 39.5169 20.4875 40 21.0437 40H37.9015C38.4578 40 38.8907 39.5169 38.8302 38.964Z" fill="#E4918A"/>
<path d="M25.7784 38.964L27.4934 23.3147C27.5454 22.841 27.9455 22.4822 28.4221 22.4822H22.7587C22.2822 22.4822 21.8819 22.841 21.83 23.3147L20.115 38.964C20.0544 39.5169 20.4875 40 21.0437 40H26.7071C26.1508 40 25.7178 39.5169 25.7784 38.964Z" fill="#DD5B4F"/>
<path d="M29.4733 35.6727C26.7407 35.6727 24.5176 33.4496 24.5176 30.717V27.1895C24.5176 26.8611 24.7838 26.5948 25.1123 26.5948C25.4407 26.5948 25.707 26.8611 25.707 27.1895V30.717C25.707 32.7938 27.3966 34.4834 29.4734 34.4834C31.5502 34.4834 33.2398 32.7938 33.2398 30.717V27.1895C33.2398 26.8611 33.506 26.5948 33.8345 26.5948C34.1629 26.5948 34.4291 26.8611 34.4291 27.1895V30.717C34.429 33.4496 32.2059 35.6727 29.4733 35.6727Z" fill="white"/>
<path d="M33.8343 27.7025C32.8072 27.7025 31.9717 26.8669 31.9717 25.8398C31.9717 24.8128 32.8072 23.9772 33.8343 23.9772C34.8614 23.9772 35.6969 24.8128 35.6969 25.8398C35.6969 26.8669 34.8614 27.7025 33.8343 27.7025ZM33.8343 25.1665C33.4631 25.1665 33.1611 25.4686 33.1611 25.8398C33.1611 26.2111 33.4631 26.5131 33.8343 26.5131C34.2056 26.5131 34.5076 26.2111 34.5076 25.8398C34.5076 25.4686 34.2056 25.1665 33.8343 25.1665Z" fill="white"/>
<path d="M25.1117 27.7025C24.0846 27.7025 23.249 26.8669 23.249 25.8398C23.249 24.8128 24.0846 23.9772 25.1117 23.9772C26.1387 23.9772 26.9743 24.8128 26.9743 25.8398C26.9743 26.8669 26.1387 27.7025 25.1117 27.7025ZM25.1117 25.1665C24.7404 25.1665 24.4384 25.4686 24.4384 25.8398C24.4384 26.2111 24.7404 26.5131 25.1117 26.5131C25.4829 26.5131 25.785 26.2111 25.785 25.8398C25.785 25.4686 25.4829 25.1665 25.1117 25.1665Z" fill="white"/>
</svg>
