<svg width="32" height="32" viewBox="0 0 32 32" fill="none" xmlns="http://www.w3.org/2000/svg">
<g clip-path="url(#clip0)">
<path d="M29.7597 22.2919C29.3646 21.8969 28.9436 21.5396 28.4991 21.2197C27.5521 22.3134 26.4402 23.2327 25.1865 23.9563C23.2447 25.0777 21.0361 25.6764 18.7949 25.6905C19.985 26.1705 21.2681 26.4223 22.59 26.4223C25.2984 26.4223 27.8446 25.3676 29.7597 23.4525C29.9136 23.2986 30 23.09 30 22.8724C30 22.6549 29.9135 22.4458 29.7597 22.2919Z" fill="#EDEEF3"/>
<path d="M3.5009 21.2197C3.0564 21.5396 2.63536 21.8969 2.2403 22.2919C2.08646 22.4458 2 22.6549 2 22.8724C2 23.09 2.08646 23.2986 2.2403 23.4525C4.1554 25.3676 6.70165 26.4223 9.40999 26.4223C10.7319 26.4223 12.015 26.1705 13.2051 25.6905C10.9637 25.6764 8.75533 25.0777 6.81327 23.9562C5.55972 23.2327 4.44781 22.3134 3.5009 21.2197Z" fill="#EDEEF3"/>
<path d="M7.63376 22.5357C8.99751 23.3232 10.583 23.8513 12.2733 24.0043C9.35248 22.3877 7.77393 20.1432 7.03089 18.8563C6.21375 17.4411 5.66146 15.9077 5.38682 14.2942C4.57083 14.3292 3.7585 14.451 2.96816 14.6611C2.60722 14.7473 2.33887 15.0722 2.33887 15.4595C2.33887 15.5312 2.34827 15.6026 2.36687 15.6719C3.20468 18.7969 5.25032 21.1598 7.63376 22.5357Z" fill="#A6B0E1"/>
<path d="M19.7271 24.0042C21.4173 23.8512 23.0028 23.3231 24.3666 22.5356C26.75 21.1598 28.7956 18.7968 29.6335 15.6719C29.6521 15.6026 29.6615 15.5312 29.6615 15.4595C29.6615 15.0722 29.3932 14.7473 29.0322 14.6611C28.2419 14.451 27.4296 14.3291 26.6136 14.2942C26.3389 15.9077 25.7866 17.4411 24.9695 18.8563C24.2264 20.1432 22.6497 22.3866 19.7271 24.0042Z" fill="#A6B0E1"/>
<path d="M12.2428 22.0675C11.4139 20.7286 10.1266 18.1584 10.1266 14.6353C10.1266 12.85 10.457 11.1134 11.1079 9.46576C10.2114 8.95438 9.25009 8.55669 8.24926 8.28862C7.81154 8.17148 7.36195 8.43102 7.24465 8.86858C6.3493 12.2088 6.98078 15.4892 8.45127 18.0359C9.34405 19.5822 10.6261 20.9951 12.2428 22.0675Z" fill="#6778D0"/>
<path d="M19.7563 22.068C21.3733 20.9955 22.6557 19.5824 23.5486 18.0359C25.0191 15.4892 25.6506 12.2088 24.7552 8.8686C24.6379 8.43104 24.1883 8.17144 23.7506 8.28863C22.7496 8.55671 21.7883 8.95451 20.8916 9.466C21.5424 11.1135 21.8729 12.8501 21.8729 14.6353C21.8729 18.1615 20.5833 20.7323 19.7563 22.068Z" fill="#6778D0"/>
<path d="M16.5801 5.81793C16.4263 5.6641 16.2172 5.57764 15.9996 5.57764C15.7821 5.57764 15.5734 5.6641 15.4196 5.81793C13.271 7.96655 11.7676 11.0682 11.7676 14.6353C11.7676 18.2039 13.2727 21.3057 15.4196 23.4526C15.5734 23.6064 15.7826 23.6929 16.0001 23.6929C16.2177 23.6929 16.4263 23.6064 16.5801 23.4526C18.7265 21.3063 20.2322 18.2048 20.2322 14.6353C20.2322 11.0666 18.7277 7.96535 16.5801 5.81793Z" fill="#1035BB"/>
<path d="M14.9502 23L16.0002 24.75L17.0502 23L16.0002 14.25L14.9502 23Z" fill="white"/>
<ellipse rx="0.349999" ry="0.35" transform="matrix(1 0 0 -1 29.6498 13.5499)" fill="#A6B0E1"/>
<ellipse rx="0.35" ry="0.35" transform="matrix(1 0 0 -1 2.35 13.5499)" fill="#A6B0E1"/>
</g>
<circle cx="16.3502" cy="2.525" r="0.525" fill="#6778D0"/>
<circle cx="9.525" cy="5.15" r="0.525" fill="#6778D0"/>
<circle cx="22.65" cy="5.15" r="0.525" fill="#6778D0"/>
<defs>
<clipPath id="clip0">
<rect width="28" height="28" fill="white" transform="translate(2 2)"/>
</clipPath>
</defs>
</svg>
