<svg width="32" height="32" viewBox="0 0 32 32" fill="none" xmlns="http://www.w3.org/2000/svg">
<path d="M28.75 22.5C28.75 20.8431 23.0416 19.5 16.0001 19.5C8.95841 19.5 3.25 20.8431 3.25 22.5C3.25 24.1567 8.95841 25.5 16.0001 25.5C23.0416 25.5 28.75 24.1567 28.75 22.5Z" fill="#E9EAF1"/>
<path d="M26.125 22.3125C26.125 21.2251 21.5919 20.3438 16.0001 20.3438C10.4081 20.3438 5.875 21.2251 5.875 22.3125C5.875 23.3997 10.4081 24.2813 16.0001 24.2813C21.5919 24.2813 26.125 23.3997 26.125 22.3125Z" fill="#D7D8E2"/>
<path d="M30.25 14.25H1.75C1.33579 14.25 1 14.5858 1 15C1 15.4142 1.33579 15.75 1.75 15.75H30.25C30.6642 15.75 31 15.4142 31 15C31 14.5858 30.6642 14.25 30.25 14.25Z" fill="#696B7A"/>
<path d="M4.74898 18.7899H3.3115C2.86329 18.7899 2.5 18.4266 2.5 17.9784V11.6665C2.5 11.2183 2.86329 10.855 3.3115 10.855H4.74898V18.7899Z" fill="#696B7A"/>
<path d="M2.5 16.2168V17.9786C2.5 18.4268 2.86329 18.7901 3.3115 18.7901H4.74898V17.0283H3.3115C2.86337 17.0283 2.5 16.665 2.5 16.2168Z" fill="#696B7A"/>
<path d="M6.25 9.00012H5.29125C4.9923 9.00012 4.75 9.37449 4.75 9.83638V20.1639C4.75 20.6258 4.9923 21.0001 5.29125 21.0001H6.25H7.20875C7.5077 21.0001 7.75 20.6258 7.75 20.1639V9.83638C7.75 9.37449 7.5077 9.00012 7.20875 9.00012C7.20875 9.00012 6.25 9.00012 6.25 9.00012Z" fill="#8F919D"/>
<path d="M27.248 18.7897H28.6855C29.1337 18.7897 29.497 18.4264 29.497 17.9782V11.6664C29.497 11.2181 29.1337 10.8549 28.6855 10.8549H27.248V18.7897Z" fill="#696B7A"/>
<path d="M29.497 16.2168V17.9786C29.497 18.4268 29.1337 18.7901 28.6855 18.7901H27.248V17.0283H28.6855C29.1337 17.0283 29.497 16.665 29.497 16.2168Z" fill="#696B7A"/>
<path d="M25.75 9H26.7088C27.0077 9 27.25 9.37437 27.25 9.83626V20.1637C27.25 20.6256 27.0077 21 26.7088 21H25.75H24.7912C24.4923 21 24.25 20.6256 24.25 20.1637V9.83626C24.25 9.37437 24.4923 9 24.7912 9H25.75Z" fill="#8F919D"/>
<path d="M19.6014 7.14678C18.9655 6.41766 18.0467 6 17.0799 6H14.921C14.685 6 14.4516 6.02481 14.2247 6.07329C13.522 6.22203 12.8796 6.59549 12.3994 7.14678C11.7635 7.87538 11.4747 8.84324 11.6073 9.8009L11.9635 12.3941L12.1263 13.5802L12.2836 14.7216H19.7168L19.8898 13.4622L20.0369 12.3947L20.3937 9.8009C20.5257 8.84324 20.2368 7.87538 19.6014 7.14678ZM18.1151 12.503L18.0698 12.8328H13.931L13.8734 12.413L13.7176 11.2829L13.4784 9.54379C13.4196 9.1202 13.5425 8.70956 13.8232 8.38835C14.1034 8.06611 14.4937 7.88879 14.921 7.88879H17.0799C17.5067 7.88879 17.8969 8.06611 18.1777 8.38835C18.4579 8.70956 18.5808 9.1202 18.5226 9.54379L18.2833 11.2829L18.1151 12.503Z" fill="#696B7A"/>
<path d="M13.9309 12.8331H14.7281C14.5659 13.2725 14.4448 13.5553 14.4448 13.5553L12.1266 13.5803L11.6071 9.8009C11.4749 8.84315 11.7638 7.87539 12.3993 7.14652C12.8798 6.59544 13.522 6.22209 14.2248 6.07324C14.0337 6.35268 13.4726 7.36546 14.9209 7.8888C14.4937 7.8888 14.1037 8.06601 13.8231 8.3882C13.5426 8.70988 13.4198 9.12042 13.4782 9.54375L13.9309 12.8331Z" fill="#696B7A"/>
<path d="M22 16.8331C22 19.443 20.3342 21.6633 18.0072 22.4884C13.9672 23.6191 9.65662 20.6277 10.0217 16.3195C10.1532 14.7675 10.8759 13.3835 11.9634 12.3941C12.4748 11.9285 13.0676 11.5502 13.7175 11.2829C14.4213 10.9929 15.192 10.8329 16.0003 10.8329C16.1168 10.8329 16.2326 10.8367 16.3474 10.8431C17.0296 10.8819 17.6812 11.035 18.2832 11.2829C18.9326 11.5502 19.5248 11.9285 20.0368 12.3946C20.9529 13.2278 21.6099 14.3412 21.8729 15.599C21.9563 15.9967 22 16.41 22 16.8331Z" fill="#696B7A"/>
<path d="M20.8235 14.5037C20.7172 15.8028 19.6416 16.8232 18.3303 16.8232C16.9482 16.8232 15.8281 15.6899 15.8281 14.2915C15.8281 13.0947 16.6483 12.0923 17.7511 11.8279C19.2718 11.9157 20.5198 13.0341 20.8235 14.5037Z" fill="#8F919D"/>
</svg>
